<svg xmlns="http://www.w3.org/2000/svg" width="28" height="28" viewBox="0 0 28 28">
  <g id="Group_5292" data-name="Group 5292" transform="translate(18866 -1500)">
    <rect id="Rectangle_625" data-name="Rectangle 625" width="28" height="28" transform="translate(-18866 1500)" fill="none"/>
    <g id="Group_5754" data-name="Group 5754" transform="translate(-2.332 -2.149)">
      <path id="Path_1014" data-name="Path 1014" d="M35.985,50.466,32,53.687V40.805A.805.805,0,0,1,32.805,40H45.687a.805.805,0,0,1,.805.805v8.856a.805.805,0,0,1-.805.805Z" transform="translate(-18891.668 1467.15)" fill="none" stroke="#fff" stroke-linecap="round" stroke-linejoin="round" stroke-width="1"/>
      <path id="Path_1015" data-name="Path 1015" d="M80,93.636v4.026a.805.805,0,0,0,.805.805h9.7l3.985,3.22V88.805A.805.805,0,0,0,93.687,88H89.662" transform="translate(-18934.836 1423.98)" fill="none" stroke="#fff" stroke-linecap="round" stroke-linejoin="round" stroke-width="1"/>
    </g>
  </g>
</svg>
